C:\Users\eduardo.barbosa\Desktop\Projetos\eduardo-viegas\modulo03\AULA02\Petshop\src\main\java\br\com\dbc\petshop\entity\Cliente.java
C:\Users\eduardo.barbosa\Desktop\Projetos\eduardo-viegas\modulo03\AULA02\Petshop\src\main\java\br\com\dbc\petshop\entity\SexoType.java
C:\Users\eduardo.barbosa\Desktop\Projetos\eduardo-viegas\modulo03\AULA02\Petshop\src\main\java\br\com\dbc\petshop\entity\AnimalDAO.java
C:\Users\eduardo.barbosa\Desktop\Projetos\eduardo-viegas\modulo03\AULA02\Petshop\src\main\java\br\com\dbc\petshop\Main.java
C:\Users\eduardo.barbosa\Desktop\Projetos\eduardo-viegas\modulo03\AULA02\Petshop\src\main\java\br\com\dbc\petshop\entity\ClienteDAO.java
C:\Users\eduardo.barbosa\Desktop\Projetos\eduardo-viegas\modulo03\AULA02\Petshop\src\main\java\br\com\dbc\petshop\entity\HibernateUtil.java
C:\Users\eduardo.barbosa\Desktop\Projetos\eduardo-viegas\modulo03\AULA02\Petshop\src\main\java\br\com\dbc\petshop\entity\Animal.java
C:\Users\eduardo.barbosa\Desktop\Projetos\eduardo-viegas\modulo03\AULA02\Petshop\src\main\java\br\com\dbc\petshop\entity\PersistenceUtils.java
