-------------------------------------------------------------------------------
Test set: br.com.dbc.petshopjpa.service.ClienteServiceTest
-------------------------------------------------------------------------------
Tests run: 1, Failures: 0, Errors: 0, Skipped: 0, Time elapsed: 1.345 sec
