-------------------------------------------------------------------------------
Test set: br.com.dbc.localizacao.service.PaisServiceTest
-------------------------------------------------------------------------------
Tests run: 2, Failures: 0, Errors: 0, Skipped: 0, Time elapsed: 1.637 sec
